%YAML 1.1
%TAG !u! tag:unity3d.com,2011:
--- !u!1045 &1
EditorBuildSettings:
  m_ObjectHideFlags: 0
  serializedVersion: 2
  m_Scenes:
  - enabled: 0
    path: 
    guid: 00000000000000000000000000000000
  - enabled: 0
    path: Assets/Scenes/TestLevelDesign.unity
    guid: 2b5cf30d68f74ca48b5bc8822caef00e
  - enabled: 1
    path: Assets/Scenes/EndScene.unity
    guid: f1c9aef7ba478c3488079c595fda5bb1
  - enabled: 1
    path: Assets/Scenes/LEVELS/Level_1.unity
    guid: 91e40a016ed567f4d8cd46b886f9e2f9
  - enabled: 1
    path: Assets/Scenes/LEVELS/Level_2.unity
    guid: b290758871c03aa46a274aabe95f982a
  - enabled: 1
    path: Assets/Scenes/LEVELS/Level_3.unity
    guid: 7d6060e98cd20b94b8f205a2925381d3
  m_configObjects: {}
